…
    mutate(train = map(train, as_tibble),
                 test = map(test, as_tibble)) %>%
    mutate(lm_diy = map(.x = train,
                                            .f = ~lm(formula = as.formula(bwt_diy),
                                                             data = .x)),
                 lm_len_ga = map(.x = train,
                                                .f = ~lm(formula = as.formula(bwt_len_ga),
                                                                 data = .x)),
                 lm_head_len_sex = map(.x = train,
                                                            .f = ~lm(formula = as.formula(bwt_head_len_sex),
                                                                             data = .x))
                 )
```

    ## # A tibble: 100 x 6
    ##    train            test           .id   lm_diy  lm_len_ga lm_head_len_sex
    ##    <list>           <list>         <chr> <list>  <list>    <list>         
    ##  1 <tibble [3,473 … <tibble [869 … 001   <S3: l… <S3: lm>  <S3: lm>       
    ##  2 <tibble [3,473 … <tibble [869 … 002   <S3: l… <S3: lm>  <S3: lm>       
    ##  3 <tibble [3,473 … <tibble [869 … 003   <S3: l… <S3: lm>  <S3: lm>       
    ##  4 <tibble [3,473 … <tibble [869 … 004   <S3: l… <S3: lm>  <S3: lm>       
    ##  5 <tibble [3,473 … <tibble [869 … 005   <S3: l… <S3: lm>  <S3: lm>       
    ##  6 <tibble [3,473 … <tibble [869 … 006   <S3: l… <S3: lm>  <S3: lm>       
    ##  7 <tibble [3,473 … <tibble [869 … 007   <S3: l… <S3: lm>  <S3: lm>       
    ##  8 <tibble [3,473 … <tibble [869 … 008   <S3: l… <S3: lm>  <S3: lm>       
    ##  9 <tibble [3,473 … <tibble [869 … 009   <S3: l… <S3: lm>  <S3: lm>       
    ## 10 <tibble [3,473 … <tibble [869 … 010   <S3: l… <S3: lm>  <S3: lm>       
    ## # ... with 90 more rows
